date,x_i,isNull,Train,Test,Test2
01/01/1986 01:00:00,nan,True,1,0,0
01/01/1986 02:00:00,nan,True,1,0,0
01/01/1986 03:00:00,nan,True,1,0,0
01/01/1986 04:00:00,nan,True,1,0,0
01/01/1986 05:00:00,nan,True,1,0,0
01/01/1986 06:00:00,nan,True,1,0,0
01/01/1986 07:00:00,nan,True,1,0,0
01/01/1986 08:00:00,nan,True,1,0,0
01/01/1986 09:00:00,nan,True,1,0,0
01/01/1986 10:00:00,nan,True,1,0,0
01/01/1986 11:00:00,nan,True,1,0,0
01/01/1986 12:00:00,nan,True,1,0,0
01/01/1986 13:00:00,nan,True,1,0,0
01/01/1986 14:00:00,nan,True,1,0,0
01/01/1986 15:00:00,nan,True,1,0,0
01/01/1986 16:00:00,nan,True,1,0,0
01/01/1986 17:00:00,nan,True,1,0,0
01/01/1986 18:00:00,nan,True,1,0,0
01/01/1986 19:00:00,nan,True,1,0,0
01/01/1986 20:00:00,nan,True,1,0,0
01/01/1986 21:00:00,nan,True,1,0,0
01/01/1986 22:00:00,nan,True,1,0,0
01/01/1986 23:00:00,nan,True,1,0,0
02/01/1986 00:00:00,nan,True,1,0,0
01/02/1986 01:00:00,21.0,False,1,0,0
01/02/1986 02:00:00,21.0,False,1,0,0
01/02/1986 03:00:00,36.0,False,1,0,0
01/02/1986 04:00:00,23.0,False,1,0,0
01/02/1986 05:00:00,6.0,False,1,0,0
01/02/1986 06:00:00,22.0,False,1,0,0
01/02/1986 07:00:00,18.0,False,1,0,0
01/02/1986 08:00:00,9.0,False,1,0,0
01/02/1986 09:00:00,23.0,False,1,0,0
01/02/1986 10:00:00,59.0,False,1,0,0
01/02/1986 11:00:00,nan,True,1,0,0
01/02/1986 12:00:00,nan,True,1,0,0
01/02/1986 13:00:00,nan,True,1,0,0
01/02/1986 14:00:00,nan,True,1,0,0
01/02/1986 15:00:00,226.0,False,1,0,0
01/02/1986 16:00:00,211.0,False,1,0,0
01/02/1986 17:00:00,166.0,False,1,0,0
01/02/1986 18:00:00,80.0,False,1,0,0
01/02/1986 19:00:00,42.0,False,1,0,0
01/02/1986 20:00:00,37.0,False,1,0,0
01/02/1986 21:00:00,56.0,False,1,0,0
01/02/1986 22:00:00,22.0,False,1,0,0
01/02/1986 23:00:00,11.0,False,1,0,0
02/02/1986 00:00:00,46.0,False,1,0,0
01/03/1986 01:00:00,5.0,False,1,0,0
01/03/1986 03:00:00,4.0,False,0,1,0
01/03/1986 04:00:00,7.0,False,0,1,0
01/03/1986 05:00:00,11.0,False,0,1,0
01/03/1986 06:00:00,9.0,False,0,1,0
01/03/1986 07:00:00,7.0,False,0,1,0
01/03/1986 08:00:00,8.0,False,0,1,0
01/03/1986 09:00:00,22.0,False,0,1,0
01/03/1986 10:00:00,55.0,False,0,1,0
01/03/1986 11:00:00,143.0,False,0,1,0
01/03/1986 12:00:00,258.0,False,0,1,0
01/03/1986 13:00:00,334.0,False,0,1,0
01/03/1986 14:00:00,283.0,False,0,1,0
01/03/1986 15:00:00,229.0,False,0,1,0
01/03/1986 16:00:00,215.0,False,0,1,0
01/03/1986 17:00:00,139.0,False,0,1,0
01/03/1986 18:00:00,100.0,False,0,1,0
01/03/1986 19:00:00,88.0,False,0,1,0
01/03/1986 20:00:00,73.0,False,0,1,0
01/03/1986 21:00:00,49.0,False,0,1,0
01/03/1986 22:00:00,24.0,False,0,1,0
01/03/1986 23:00:00,34.0,False,0,1,0
02/03/1986 00:00:00,13.0,False,0,1,0
01/04/1986 01:00:00,nan,True,0,1,0
01/04/1986 02:00:00,nan,True,0,1,0
01/04/1986 04:00:00,nan,True,0,0,1
01/04/1986 05:00:00,nan,True,0,0,1
01/04/1986 06:00:00,nan,True,0,0,1
01/04/1986 07:00:00,nan,True,0,0,1
01/04/1986 08:00:00,nan,True,0,0,1
01/04/1986 09:00:00,nan,True,0,0,1
01/04/1986 10:00:00,nan,True,0,0,1
01/04/1986 11:00:00,nan,True,0,0,1
01/04/1986 12:00:00,nan,True,0,0,1
01/04/1986 13:00:00,nan,True,0,0,1
01/04/1986 14:00:00,nan,True,0,0,1
01/04/1986 15:00:00,nan,True,0,0,1
01/04/1986 16:00:00,nan,True,0,0,1
01/04/1986 17:00:00,nan,True,0,0,1
01/04/1986 18:00:00,nan,True,0,0,1
01/04/1986 19:00:00,nan,True,0,0,1
01/04/1986 20:00:00,nan,True,0,0,1
01/04/1986 21:00:00,nan,True,0,0,1
01/04/1986 22:00:00,nan,True,0,0,1
01/04/1986 23:00:00,nan,True,0,0,1
02/04/1986 00:00:00,nan,True,0,0,1
01/05/1986 01:00:00,nan,True,0,0,1
01/05/1986 02:00:00,nan,True,0,0,1
01/05/1986 03:00:00,nan,True,0,0,1
